
codigo_asci:     formato del fichero elf64-x86-64

Contenido de la sección .interp:
 0238 2f6c6962 36342f6c 642d6c69 6e75782d  /lib64/ld-linux-
 0248 7838362d 36342e73 6f2e3200           x86-64.so.2.    
Contenido de la sección .note.ABI-tag:
 0254 04000000 10000000 01000000 474e5500  ............GNU.
 0264 00000000 03000000 02000000 00000000  ................
Contenido de la sección .note.gnu.build-id:
 0274 04000000 14000000 03000000 474e5500  ............GNU.
 0284 4d52fb15 2a70b14f 99553cb7 c2a18b02  MR..*p.O.U<.....
 0294 80c526c9                             ..&.            
Contenido de la sección .gnu.hash:
 0298 01000000 01000000 01000000 00000000  ................
 02a8 00000000 00000000 00000000           ............    
Contenido de la sección .dynsym:
 02b8 00000000 00000000 00000000 00000000  ................
 02c8 00000000 00000000 3f000000 20000000  ........?... ...
 02d8 00000000 00000000 00000000 00000000  ................
 02e8 0b000000 12000000 00000000 00000000  ................
 02f8 00000000 00000000 21000000 12000000  ........!.......
 0308 00000000 00000000 00000000 00000000  ................
 0318 5b000000 20000000 00000000 00000000  [... ...........
 0328 00000000 00000000 6a000000 20000000  ........j... ...
 0338 00000000 00000000 00000000 00000000  ................
 0348 12000000 22000000 00000000 00000000  ...."...........
 0358 00000000 00000000                    ........        
Contenido de la sección .dynstr:
 0360 006c6962 632e736f 2e360070 72696e74  .libc.so.6.print
 0370 66005f5f 6378615f 66696e61 6c697a65  f.__cxa_finalize
 0380 005f5f6c 6962635f 73746172 745f6d61  .__libc_start_ma
 0390 696e0047 4c494243 5f322e32 2e35005f  in.GLIBC_2.2.5._
 03a0 49544d5f 64657265 67697374 6572544d  ITM_deregisterTM
 03b0 436c6f6e 65546162 6c65005f 5f676d6f  CloneTable.__gmo
 03c0 6e5f7374 6172745f 5f005f49 544d5f72  n_start__._ITM_r
 03d0 65676973 74657254 4d436c6f 6e655461  egisterTMCloneTa
 03e0 626c6500                             ble.            
Contenido de la sección .gnu.version:
 03e4 00000000 02000200 00000000 0200      ..............  
Contenido de la sección .gnu.version_r:
 03f8 01000100 01000000 10000000 00000000  ................
 0408 751a6909 00000200 33000000 00000000  u.i.....3.......
Contenido de la sección .rela.dyn:
 0418 b80d2000 00000000 08000000 00000000  .. .............
 0428 40060000 00000000 c00d2000 00000000  @......... .....
 0438 08000000 00000000 00060000 00000000  ................
 0448 08102000 00000000 08000000 00000000  .. .............
 0458 08102000 00000000 d80f2000 00000000  .. ....... .....
 0468 06000000 01000000 00000000 00000000  ................
 0478 e00f2000 00000000 06000000 03000000  .. .............
 0488 00000000 00000000 e80f2000 00000000  .......... .....
 0498 06000000 04000000 00000000 00000000  ................
 04a8 f00f2000 00000000 06000000 05000000  .. .............
 04b8 00000000 00000000 f80f2000 00000000  .......... .....
 04c8 06000000 06000000 00000000 00000000  ................
Contenido de la sección .rela.plt:
 04d8 d00f2000 00000000 07000000 02000000  .. .............
 04e8 00000000 00000000                    ........        
Contenido de la sección .init:
 04f0 4883ec08 488b05ed 0a200048 85c07402  H...H.... .H..t.
 0500 ffd04883 c408c3                      ..H....         
Contenido de la sección .plt:
 0510 ff35aa0a 2000ff25 ac0a2000 0f1f4000  .5.. ..%.. ...@.
 0520 ff25aa0a 20006800 000000e9 e0ffffff  .%.. .h.........
Contenido de la sección .plt.got:
 0530 ff25c20a 20006690                    .%.. .f.        
Contenido de la sección .text:
 0540 31ed4989 d15e4889 e24883e4 f050544c  1.I..^H..H...PTL
 0550 8d05aa01 0000488d 0d330100 00488d3d  ......H..3...H.=
 0560 e6000000 ff15760a 2000f40f 1f440000  ......v. ....D..
 0570 488d3d99 0a200055 488d0591 0a200048  H.=.. .UH.... .H
 0580 39f84889 e5741948 8b054a0a 20004885  9.H..t.H..J. .H.
 0590 c0740d5d ffe0662e 0f1f8400 00000000  .t.]..f.........
 05a0 5dc30f1f 4000662e 0f1f8400 00000000  ]...@.f.........
 05b0 488d3d59 0a200048 8d35520a 20005548  H.=Y. .H.5R. .UH
 05c0 29fe4889 e548c1fe 034889f0 48c1e83f  ).H..H...H..H..?
 05d0 4801c648 d1fe7418 488b0511 0a200048  H..H..t.H.... .H
 05e0 85c0740c 5dffe066 0f1f8400 00000000  ..t.]..f........
 05f0 5dc30f1f 4000662e 0f1f8400 00000000  ]...@.f.........
 0600 803d090a 20000075 2f48833d e7092000  .=.. ..u/H.=.. .
 0610 00554889 e5740c48 8b3dea09 2000e80d  .UH..t.H.=.. ...
 0620 ffffffe8 48ffffff c605e109 2000015d  ....H....... ..]
 0630 c30f1f80 00000000 f3c3660f 1f440000  ..........f..D..
 0640 554889e5 5de966ff ffff5548 89e54883  UH..].f...UH..H.
 0650 ec10c645 ff200fb6 45ff84c0 782b0fb6  ...E. ..E...x+..
 0660 4dff0fb6 55ff0fb6 45ff89c6 488d3da1  M...U...E...H.=.
 0670 000000b8 00000000 e8a3feff ff0fb645  ...............E
 0680 ff83c001 8845ffeb cdb80000 0000c9c3  .....E..........
 0690 41574156 4989d741 5541544c 8d251607  AWAVI..AUATL.%..
 06a0 20005548 8d2d1607 20005341 89fd4989   .UH.-.. .SA..I.
 06b0 f64c29e5 4883ec08 48c1fd03 e82ffeff  .L).H...H..../..
 06c0 ff4885ed 742031db 0f1f8400 00000000  .H..t 1.........
 06d0 4c89fa4c 89f64489 ef41ff14 dc4883c3  L..L..D..A...H..
 06e0 014839dd 75ea4883 c4085b5d 415c415d  .H9.u.H...[]A\A]
 06f0 415e415f c390662e 0f1f8400 00000000  A^A_..f.........
 0700 f3c3                                 ..              
Contenido de la sección .fini:
 0704 4883ec08 4883c408 c3                 H...H....       
Contenido de la sección .rodata:
 0710 01000200 25692025 58202563 0a00      ....%i %X %c..  
Contenido de la sección .eh_frame_hdr:
 0720 011b033b 3c000000 06000000 f0fdffff  ...;<...........
 0730 88000000 10feffff b0000000 20feffff  ............ ...
 0740 58000000 2affffff c8000000 70ffffff  X...*.......p...
 0750 e8000000 e0ffffff 30010000           ........0...    
Contenido de la sección .eh_frame:
 0760 14000000 00000000 017a5200 01781001  .........zR..x..
 0770 1b0c0708 90010710 14000000 1c000000  ................
 0780 c0fdffff 2b000000 00000000 00000000  ....+...........
 0790 14000000 00000000 017a5200 01781001  .........zR..x..
 07a0 1b0c0708 90010000 24000000 1c000000  ........$.......
 07b0 60fdffff 20000000 000e1046 0e184a0f  `... ......F..J.
 07c0 0b770880 003f1a3b 2a332422 00000000  .w...?.;*3$"....
 07d0 14000000 44000000 58fdffff 08000000  ....D...X.......
 07e0 00000000 00000000 1c000000 5c000000  ............\...
 07f0 5afeffff 46000000 00410e10 8602430d  Z...F....A....C.
 0800 0602410c 07080000 44000000 7c000000  ..A.....D...|...
 0810 80feffff 65000000 00420e10 8f02420e  ....e....B....B.
 0820 188e0345 0e208d04 420e288c 05480e30  ...E. ..B.(..H.0
 0830 8606480e 3883074d 0e40720e 38410e30  ..H.8..M.@r.8A.0
 0840 410e2842 0e20420e 18420e10 420e0800  A.(B. B..B..B...
 0850 10000000 c4000000 a8feffff 02000000  ................
 0860 00000000 00000000                    ........        
Contenido de la sección .init_array:
 200db8 40060000 00000000                    @.......        
Contenido de la sección .fini_array:
 200dc0 00060000 00000000                    ........        
Contenido de la sección .dynamic:
 200dc8 01000000 00000000 01000000 00000000  ................
 200dd8 0c000000 00000000 f0040000 00000000  ................
 200de8 0d000000 00000000 04070000 00000000  ................
 200df8 19000000 00000000 b80d2000 00000000  .......... .....
 200e08 1b000000 00000000 08000000 00000000  ................
 200e18 1a000000 00000000 c00d2000 00000000  .......... .....
 200e28 1c000000 00000000 08000000 00000000  ................
 200e38 f5feff6f 00000000 98020000 00000000  ...o............
 200e48 05000000 00000000 60030000 00000000  ........`.......
 200e58 06000000 00000000 b8020000 00000000  ................
 200e68 0a000000 00000000 84000000 00000000  ................
 200e78 0b000000 00000000 18000000 00000000  ................
 200e88 15000000 00000000 00000000 00000000  ................
 200e98 03000000 00000000 b80f2000 00000000  .......... .....
 200ea8 02000000 00000000 18000000 00000000  ................
 200eb8 14000000 00000000 07000000 00000000  ................
 200ec8 17000000 00000000 d8040000 00000000  ................
 200ed8 07000000 00000000 18040000 00000000  ................
 200ee8 08000000 00000000 c0000000 00000000  ................
 200ef8 09000000 00000000 18000000 00000000  ................
 200f08 1e000000 00000000 08000000 00000000  ................
 200f18 fbffff6f 00000000 01000008 00000000  ...o............
 200f28 feffff6f 00000000 f8030000 00000000  ...o............
 200f38 ffffff6f 00000000 01000000 00000000  ...o............
 200f48 f0ffff6f 00000000 e4030000 00000000  ...o............
 200f58 f9ffff6f 00000000 03000000 00000000  ...o............
 200f68 00000000 00000000 00000000 00000000  ................
 200f78 00000000 00000000 00000000 00000000  ................
 200f88 00000000 00000000 00000000 00000000  ................
 200f98 00000000 00000000 00000000 00000000  ................
 200fa8 00000000 00000000 00000000 00000000  ................
Contenido de la sección .got:
 200fb8 c80d2000 00000000 00000000 00000000  .. .............
 200fc8 00000000 00000000 26050000 00000000  ........&.......
 200fd8 00000000 00000000 00000000 00000000  ................
 200fe8 00000000 00000000 00000000 00000000  ................
 200ff8 00000000 00000000                    ........        
Contenido de la sección .data:
 201000 00000000 00000000 08102000 00000000  .......... .....
Contenido de la sección .comment:
 0000 4743433a 20285562 756e7475 20372e34  GCC: (Ubuntu 7.4
 0010 2e302d31 7562756e 7475317e 31382e30  .0-1ubuntu1~18.0
 0020 342e3129 20372e34 2e3000             4.1) 7.4.0.     
Contenido de la sección .debug_aranges:
 0000 2c000000 02000000 00000800 00000000  ,...............
 0010 4a060000 00000000 46000000 00000000  J.......F.......
 0020 00000000 00000000 00000000 00000000  ................
Contenido de la sección .debug_info:
 0000 37030000 04000000 00000801 ee000000  7...............
 0010 04880000 00ca0100 004a0600 00000000  .........J......
 0020 00460000 00000000 00000000 00022f00  .F............/.
 0030 000002d8 38000000 030807ff 01000003  ....8...........
 0040 0108e000 00000302 07800100 00030407  ................
 0050 04020000 030106e2 00000003 02052500  ..............%.
 0060 00000404 05696e74 00030805 93010000  .....int........
 0070 02290200 00038c69 00000002 1f020000  .).....i........
 0080 038d6900 00000508 06088e00 00000301  ..i.............
 0090 06e90000 00078e00 000008d7 000000d8  ................
 00a0 04f51a02 00000944 00000004 f6620000  .......D.....b..
 00b0 00000973 01000004 fb880000 00080961  ...s...........a
 00c0 00000004 fc880000 0010095c 02000004  ...........\....
 00d0 fd880000 0018095b 01000004 fe880000  .......[........
 00e0 00200936 00000004 ff880000 00280a11  . .6.........(..
 00f0 02000004 00018800 0000300a 4b000000  ..........0.K...
 0100 04010188 00000038 0a000000 00040201  .......8........
 0110 88000000 400a7902 00000404 01880000  ....@.y.........
 0120 00480a38 02000004 05018800 0000500a  .H.8..........P.
 0130 18000000 04060188 00000058 0a580000  ...........X.X..
 0140 00040801 52020000 600a3102 0000040a  ....R...`.1.....
 0150 01580200 00680a87 02000004 0c016200  .X...h........b.
 0160 0000700a 4e020000 04100162 00000074  ..p.N......b...t
 0170 0a0c0000 00041201 70000000 780a9800  ........p...x...
 0180 00000416 01460000 00800a6a 02000004  .....F.....j....
 0190 17015400 0000820a 51010000 0418015e  ..T.....Q......^
 01a0 02000083 0a820000 00041c01 6e020000  ............n...
 01b0 880a1000 00000425 017b0000 00900aa7  .......%.{......
 01c0 01000004 2d018600 0000980a ae010000  ....-...........
 01d0 042e0186 000000a0 0ab50100 00042f01  ............../.
 01e0 86000000 a80abc01 00000430 01860000  ...........0....
 01f0 00b00ac3 01000004 32012d00 0000b80a  ........2.-.....
 0200 56020000 04330162 000000c0 0a6a0100  V....3.b.....j..
 0210 00043501 74020000 c4000ba6 02000004  ..5.t...........
 0220 9a084601 00001804 a0520200 0009a101  ..F......R......
 0230 000004a1 52020000 0009d100 000004a2  ....R...........
 0240 58020000 0809c200 000004a6 62000000  X...........b...
 0250 10000608 21020000 06089a00 00000c8e  ....!...........
 0260 0000006e 0200000d 38000000 00000608  ...n....8.......
 0270 1a020000 0c8e0000 00840200 000d3800  ..............8.
 0280 00001300 0eb40000 000f3701 0000043f  ..........7....?
 0290 01840200 000f9602 00000440 01840200  ...........@....
 02a0 000fa400 00000441 01840200 00060895  .......A........
 02b0 00000007 ad020000 10480200 00058758  .........H.....X
 02c0 02000010 8f020000 05885802 0000107b  ..........X....{
 02d0 00000005 89580200 0010c800 0000061a  .....X..........
 02e0 62000000 0cb30200 00ef0200 00110010  b...............
 02f0 6f000000 061be402 000010c7 00000006  o...............
 0300 1e620000 00106e00 0000061f e4020000  .b....n.........
 0310 129c0100 00010362 0000004a 06000000  .......b...J....
 0320 00000046 00000000 00000001 9c136900  ...F..........i.
 0330 01053f00 00000291 6f0000             ..?.....o..     
Contenido de la sección .debug_abbrev:
 0000 01110125 0e130b03 0e1b0e11 01120710  ...%............
 0010 17000002 1600030e 3a0b3b0b 49130000  ........:.;.I...
 0020 0324000b 0b3e0b03 0e000004 24000b0b  .$...>......$...
 0030 3e0b0308 0000050f 000b0b00 00060f00  >...............
 0040 0b0b4913 00000726 00491300 00081301  ..I....&.I......
 0050 030e0b0b 3a0b3b0b 01130000 090d0003  ....:.;.........
 0060 0e3a0b3b 0b491338 0b00000a 0d00030e  .:.;.I.8........
 0070 3a0b3b05 4913380b 00000b16 00030e3a  :.;.I.8........:
 0080 0b3b0b00 000c0101 49130113 00000d21  .;......I......!
 0090 0049132f 0b00000e 1300030e 3c190000  .I./........<...
 00a0 0f340003 0e3a0b3b 0549133f 193c1900  .4...:.;.I.?.<..
 00b0 00103400 030e3a0b 3b0b4913 3f193c19  ..4...:.;.I.?.<.
 00c0 00001121 00000012 2e013f19 030e3a0b  ...!......?...:.
 00d0 3b0b4913 11011207 40189642 19000013  ;.I.....@..B....
 00e0 34000308 3a0b3b0b 49130218 000000    4...:.;.I...... 
Contenido de la sección .debug_line:
 0000 e8000000 0200bc00 00000101 fb0e0d00  ................
 0010 01010101 00000001 0000012f 7573722f  .........../usr/
 0020 6c69622f 6763632f 7838365f 36342d6c  lib/gcc/x86_64-l
 0030 696e7578 2d676e75 2f372f69 6e636c75  inux-gnu/7/inclu
 0040 6465002f 7573722f 696e636c 7564652f  de./usr/include/
 0050 7838365f 36342d6c 696e7578 2d676e75  x86_64-linux-gnu
 0060 2f626974 73002f75 73722f69 6e636c75  /bits./usr/inclu
 0070 64650000 636f6469 676f5f61 7363692e  de..codigo_asci.
 0080 63707000 00000073 74646465 662e6800  cpp....stddef.h.
 0090 01000074 79706573 2e680002 00006c69  ...types.h....li
 00a0 62696f2e 68000200 00737464 696f2e68  bio.h....stdio.h
 00b0 00030000 7379735f 6572726c 6973742e  ....sys_errlist.
 00c0 68000200 00000009 024a0600 00000000  h........J......
 00d0 00148600 02040306 4a000204 02068300  ........J.......
 00e0 02040208 d5bc5902 02000101           ......Y.....    
Contenido de la sección .debug_str:
 0000 5f494f5f 6275665f 656e6400 5f6f6c64  _IO_buf_end._old
 0010 5f6f6666 73657400 5f494f5f 73617665  _offset._IO_save
 0020 5f656e64 0073686f 72742069 6e740073  _end.short int.s
 0030 697a655f 74005f49 4f5f7772 6974655f  ize_t._IO_write_
 0040 70747200 5f666c61 6773005f 494f5f62  ptr._flags._IO_b
 0050 75665f62 61736500 5f6d6172 6b657273  uf_base._markers
 0060 005f494f 5f726561 645f656e 64005f73  ._IO_read_end._s
 0070 79735f65 72726c69 73740073 74646572  ys_errlist.stder
 0080 72005f6c 6f636b00 636f6469 676f5f61  r._lock.codigo_a
 0090 7363692e 63707000 5f637572 5f636f6c  sci.cpp._cur_col
 00a0 756d6e00 5f494f5f 325f315f 73746465  umn._IO_2_1_stde
 00b0 72725f00 5f494f5f 46494c45 5f706c75  rr_._IO_FILE_plu
 00c0 73005f70 6f73005f 7379735f 6e657272  s._pos._sys_nerr
 00d0 005f7362 7566005f 494f5f46 494c4500  ._sbuf._IO_FILE.
 00e0 756e7369 676e6564 20636861 7200474e  unsigned char.GN
 00f0 5520432b 2b313420 372e342e 30202d6d  U C++14 7.4.0 -m
 0100 74756e65 3d67656e 65726963 202d6d61  tune=generic -ma
 0110 7263683d 7838362d 3634202d 67202d66  rch=x86-64 -g -f
 0120 73746163 6b2d7072 6f746563 746f722d  stack-protector-
 0130 7374726f 6e67005f 494f5f32 5f315f73  strong._IO_2_1_s
 0140 7464696e 5f005f49 4f5f6d61 726b6572  tdin_._IO_marker
 0150 005f7368 6f727462 7566005f 494f5f77  ._shortbuf._IO_w
 0160 72697465 5f626173 65005f75 6e757365  rite_base._unuse
 0170 6432005f 494f5f72 6561645f 70747200  d2._IO_read_ptr.
 0180 73686f72 7420756e 7369676e 65642069  short unsigned i
 0190 6e74006c 6f6e6720 696e7400 6d61696e  nt.long int.main
 01a0 005f6e65 7874005f 5f706164 31005f5f  ._next.__pad1.__
 01b0 70616432 005f5f70 61643300 5f5f7061  pad2.__pad3.__pa
 01c0 6434005f 5f706164 35002f68 6f6d652f  d4.__pad5./home/
 01d0 73747564 656e7473 2f6f6172 69637361  students/oaricsa
 01e0 6e2f776f 726b2f63 5f70726f 6772616d  n/work/c_program
 01f0 732f3031 5f696e66 6f73697a 6573006c  s/01_infosizes.l
 0200 6f6e6720 756e7369 676e6564 20696e74  ong unsigned int
 0210 005f494f 5f777269 74655f65 6e64005f  ._IO_write_end._
 0220 5f6f6666 36345f74 005f5f6f 66665f74  _off64_t.__off_t
 0230 005f6368 61696e00 5f494f5f 6261636b  ._chain._IO_back
 0240 75705f62 61736500 73746469 6e005f66  up_base.stdin._f
 0250 6c616773 32005f6d 6f646500 5f494f5f  lags2._mode._IO_
 0260 72656164 5f626173 65005f76 7461626c  read_base._vtabl
 0270 655f6f66 66736574 005f494f 5f736176  e_offset._IO_sav
 0280 655f6261 7365005f 66696c65 6e6f0073  e_base._fileno.s
 0290 74646f75 74005f49 4f5f325f 315f7374  tdout._IO_2_1_st
 02a0 646f7574 5f005f49 4f5f6c6f 636b5f74  dout_._IO_lock_t
 02b0 00                                   .               

Desensamblado de la sección .init:

00000000000004f0 <_init>:
 4f0:	48 83 ec 08          	sub    $0x8,%rsp
 4f4:	48 8b 05 ed 0a 20 00 	mov    0x200aed(%rip),%rax        # 200fe8 <__gmon_start__>
 4fb:	48 85 c0             	test   %rax,%rax
 4fe:	74 02                	je     502 <_init+0x12>
 500:	ff d0                	callq  *%rax
 502:	48 83 c4 08          	add    $0x8,%rsp
 506:	c3                   	retq   

Desensamblado de la sección .plt:

0000000000000510 <.plt>:
 510:	ff 35 aa 0a 20 00    	pushq  0x200aaa(%rip)        # 200fc0 <_GLOBAL_OFFSET_TABLE_+0x8>
 516:	ff 25 ac 0a 20 00    	jmpq   *0x200aac(%rip)        # 200fc8 <_GLOBAL_OFFSET_TABLE_+0x10>
 51c:	0f 1f 40 00          	nopl   0x0(%rax)

0000000000000520 <printf@plt>:
 520:	ff 25 aa 0a 20 00    	jmpq   *0x200aaa(%rip)        # 200fd0 <printf@GLIBC_2.2.5>
 526:	68 00 00 00 00       	pushq  $0x0
 52b:	e9 e0 ff ff ff       	jmpq   510 <.plt>

Desensamblado de la sección .plt.got:

0000000000000530 <__cxa_finalize@plt>:
 530:	ff 25 c2 0a 20 00    	jmpq   *0x200ac2(%rip)        # 200ff8 <__cxa_finalize@GLIBC_2.2.5>
 536:	66 90                	xchg   %ax,%ax

Desensamblado de la sección .text:

0000000000000540 <_start>:
 540:	31 ed                	xor    %ebp,%ebp
 542:	49 89 d1             	mov    %rdx,%r9
 545:	5e                   	pop    %rsi
 546:	48 89 e2             	mov    %rsp,%rdx
 549:	48 83 e4 f0          	and    $0xfffffffffffffff0,%rsp
 54d:	50                   	push   %rax
 54e:	54                   	push   %rsp
 54f:	4c 8d 05 aa 01 00 00 	lea    0x1aa(%rip),%r8        # 700 <__libc_csu_fini>
 556:	48 8d 0d 33 01 00 00 	lea    0x133(%rip),%rcx        # 690 <__libc_csu_init>
 55d:	48 8d 3d e6 00 00 00 	lea    0xe6(%rip),%rdi        # 64a <main>
 564:	ff 15 76 0a 20 00    	callq  *0x200a76(%rip)        # 200fe0 <__libc_start_main@GLIBC_2.2.5>
 56a:	f4                   	hlt    
 56b:	0f 1f 44 00 00       	nopl   0x0(%rax,%rax,1)

0000000000000570 <deregister_tm_clones>:
 570:	48 8d 3d 99 0a 20 00 	lea    0x200a99(%rip),%rdi        # 201010 <__TMC_END__>
 577:	55                   	push   %rbp
 578:	48 8d 05 91 0a 20 00 	lea    0x200a91(%rip),%rax        # 201010 <__TMC_END__>
 57f:	48 39 f8             	cmp    %rdi,%rax
 582:	48 89 e5             	mov    %rsp,%rbp
 585:	74 19                	je     5a0 <deregister_tm_clones+0x30>
 587:	48 8b 05 4a 0a 20 00 	mov    0x200a4a(%rip),%rax        # 200fd8 <_ITM_deregisterTMCloneTable>
 58e:	48 85 c0             	test   %rax,%rax
 591:	74 0d                	je     5a0 <deregister_tm_clones+0x30>
 593:	5d                   	pop    %rbp
 594:	ff e0                	jmpq   *%rax
 596:	66 2e 0f 1f 84 00 00 	nopw   %cs:0x0(%rax,%rax,1)
 59d:	00 00 00 
 5a0:	5d                   	pop    %rbp
 5a1:	c3                   	retq   
 5a2:	0f 1f 40 00          	nopl   0x0(%rax)
 5a6:	66 2e 0f 1f 84 00 00 	nopw   %cs:0x0(%rax,%rax,1)
 5ad:	00 00 00 

00000000000005b0 <register_tm_clones>:
 5b0:	48 8d 3d 59 0a 20 00 	lea    0x200a59(%rip),%rdi        # 201010 <__TMC_END__>
 5b7:	48 8d 35 52 0a 20 00 	lea    0x200a52(%rip),%rsi        # 201010 <__TMC_END__>
 5be:	55                   	push   %rbp
 5bf:	48 29 fe             	sub    %rdi,%rsi
 5c2:	48 89 e5             	mov    %rsp,%rbp
 5c5:	48 c1 fe 03          	sar    $0x3,%rsi
 5c9:	48 89 f0             	mov    %rsi,%rax
 5cc:	48 c1 e8 3f          	shr    $0x3f,%rax
 5d0:	48 01 c6             	add    %rax,%rsi
 5d3:	48 d1 fe             	sar    %rsi
 5d6:	74 18                	je     5f0 <register_tm_clones+0x40>
 5d8:	48 8b 05 11 0a 20 00 	mov    0x200a11(%rip),%rax        # 200ff0 <_ITM_registerTMCloneTable>
 5df:	48 85 c0             	test   %rax,%rax
 5e2:	74 0c                	je     5f0 <register_tm_clones+0x40>
 5e4:	5d                   	pop    %rbp
 5e5:	ff e0                	jmpq   *%rax
 5e7:	66 0f 1f 84 00 00 00 	nopw   0x0(%rax,%rax,1)
 5ee:	00 00 
 5f0:	5d                   	pop    %rbp
 5f1:	c3                   	retq   
 5f2:	0f 1f 40 00          	nopl   0x0(%rax)
 5f6:	66 2e 0f 1f 84 00 00 	nopw   %cs:0x0(%rax,%rax,1)
 5fd:	00 00 00 

0000000000000600 <__do_global_dtors_aux>:
 600:	80 3d 09 0a 20 00 00 	cmpb   $0x0,0x200a09(%rip)        # 201010 <__TMC_END__>
 607:	75 2f                	jne    638 <__do_global_dtors_aux+0x38>
 609:	48 83 3d e7 09 20 00 	cmpq   $0x0,0x2009e7(%rip)        # 200ff8 <__cxa_finalize@GLIBC_2.2.5>
 610:	00 
 611:	55                   	push   %rbp
 612:	48 89 e5             	mov    %rsp,%rbp
 615:	74 0c                	je     623 <__do_global_dtors_aux+0x23>
 617:	48 8b 3d ea 09 20 00 	mov    0x2009ea(%rip),%rdi        # 201008 <__dso_handle>
 61e:	e8 0d ff ff ff       	callq  530 <__cxa_finalize@plt>
 623:	e8 48 ff ff ff       	callq  570 <deregister_tm_clones>
 628:	c6 05 e1 09 20 00 01 	movb   $0x1,0x2009e1(%rip)        # 201010 <__TMC_END__>
 62f:	5d                   	pop    %rbp
 630:	c3                   	retq   
 631:	0f 1f 80 00 00 00 00 	nopl   0x0(%rax)
 638:	f3 c3                	repz retq 
 63a:	66 0f 1f 44 00 00    	nopw   0x0(%rax,%rax,1)

0000000000000640 <frame_dummy>:
 640:	55                   	push   %rbp
 641:	48 89 e5             	mov    %rsp,%rbp
 644:	5d                   	pop    %rbp
 645:	e9 66 ff ff ff       	jmpq   5b0 <register_tm_clones>

000000000000064a <main>:
 64a:	55                   	push   %rbp
 64b:	48 89 e5             	mov    %rsp,%rbp
 64e:	48 83 ec 10          	sub    $0x10,%rsp
 652:	c6 45 ff 20          	movb   $0x20,-0x1(%rbp)
 656:	0f b6 45 ff          	movzbl -0x1(%rbp),%eax
 65a:	84 c0                	test   %al,%al
 65c:	78 2b                	js     689 <main+0x3f>
 65e:	0f b6 4d ff          	movzbl -0x1(%rbp),%ecx
 662:	0f b6 55 ff          	movzbl -0x1(%rbp),%edx
 666:	0f b6 45 ff          	movzbl -0x1(%rbp),%eax
 66a:	89 c6                	mov    %eax,%esi
 66c:	48 8d 3d a1 00 00 00 	lea    0xa1(%rip),%rdi        # 714 <_IO_stdin_used+0x4>
 673:	b8 00 00 00 00       	mov    $0x0,%eax
 678:	e8 a3 fe ff ff       	callq  520 <printf@plt>
 67d:	0f b6 45 ff          	movzbl -0x1(%rbp),%eax
 681:	83 c0 01             	add    $0x1,%eax
 684:	88 45 ff             	mov    %al,-0x1(%rbp)
 687:	eb cd                	jmp    656 <main+0xc>
 689:	b8 00 00 00 00       	mov    $0x0,%eax
 68e:	c9                   	leaveq 
 68f:	c3                   	retq   

0000000000000690 <__libc_csu_init>:
 690:	41 57                	push   %r15
 692:	41 56                	push   %r14
 694:	49 89 d7             	mov    %rdx,%r15
 697:	41 55                	push   %r13
 699:	41 54                	push   %r12
 69b:	4c 8d 25 16 07 20 00 	lea    0x200716(%rip),%r12        # 200db8 <__frame_dummy_init_array_entry>
 6a2:	55                   	push   %rbp
 6a3:	48 8d 2d 16 07 20 00 	lea    0x200716(%rip),%rbp        # 200dc0 <__init_array_end>
 6aa:	53                   	push   %rbx
 6ab:	41 89 fd             	mov    %edi,%r13d
 6ae:	49 89 f6             	mov    %rsi,%r14
 6b1:	4c 29 e5             	sub    %r12,%rbp
 6b4:	48 83 ec 08          	sub    $0x8,%rsp
 6b8:	48 c1 fd 03          	sar    $0x3,%rbp
 6bc:	e8 2f fe ff ff       	callq  4f0 <_init>
 6c1:	48 85 ed             	test   %rbp,%rbp
 6c4:	74 20                	je     6e6 <__libc_csu_init+0x56>
 6c6:	31 db                	xor    %ebx,%ebx
 6c8:	0f 1f 84 00 00 00 00 	nopl   0x0(%rax,%rax,1)
 6cf:	00 
 6d0:	4c 89 fa             	mov    %r15,%rdx
 6d3:	4c 89 f6             	mov    %r14,%rsi
 6d6:	44 89 ef             	mov    %r13d,%edi
 6d9:	41 ff 14 dc          	callq  *(%r12,%rbx,8)
 6dd:	48 83 c3 01          	add    $0x1,%rbx
 6e1:	48 39 dd             	cmp    %rbx,%rbp
 6e4:	75 ea                	jne    6d0 <__libc_csu_init+0x40>
 6e6:	48 83 c4 08          	add    $0x8,%rsp
 6ea:	5b                   	pop    %rbx
 6eb:	5d                   	pop    %rbp
 6ec:	41 5c                	pop    %r12
 6ee:	41 5d                	pop    %r13
 6f0:	41 5e                	pop    %r14
 6f2:	41 5f                	pop    %r15
 6f4:	c3                   	retq   
 6f5:	90                   	nop
 6f6:	66 2e 0f 1f 84 00 00 	nopw   %cs:0x0(%rax,%rax,1)
 6fd:	00 00 00 

0000000000000700 <__libc_csu_fini>:
 700:	f3 c3                	repz retq 

Desensamblado de la sección .fini:

0000000000000704 <_fini>:
 704:	48 83 ec 08          	sub    $0x8,%rsp
 708:	48 83 c4 08          	add    $0x8,%rsp
 70c:	c3                   	retq   
